{
    "data": [
      {
        "id": 1,
        "username": "admin",
        "email": "admin@matatu.com",
        "last_login": "2024-03-15 14:30:00"
      }
    ],
    "meta": {
      "current_page": 1,
      "per_page": 20,
      "total": 45,
      "total_pages": 3
    }
  }
  {
    "routeId": 1,
    "routeName": "Nairobi-Nakuru",
    "departurePoint": "Nairobi",
    "arrivalPoint": "Nakuru",
    "price": 1200.00,
    "vehicleId": 1,
    "departureTime": "2025-04-10 08:00:00",
    "departureCoords": "POINT(-1.286389 36.817223)",
    "arrivalCoords": "POINT(-0.303099 36.080026)"
}